<?xml version="1.0" encoding="utf-8"?>
<!-- Generator: Adobe Illustrator 25.2.1, SVG Export Plug-In . SVG Version: 6.00 Build 0)  -->
<svg version="1.1" id="Layer_1" xmlns="http://www.w3.org/2000/svg" xmlns:xlink="http://www.w3.org/1999/xlink" x="0px" y="0px"
	 viewBox="0 0 670.45 150.09" style="enable-background:new 0 0 670.45 150.09;" xml:space="preserve">
<style type="text/css">
	.st0{fill:#707070;}
	.st1{fill:none;stroke:#D07427;stroke-width:1.4508;stroke-miterlimit:10;}
	.st2{fill:url(#SVGID_1_);}
	.st3{fill:url(#SVGID_2_);}
	.st4{fill:#B8C2E1;}
	.st5{fill:none;stroke:#4C5064;stroke-width:0.7254;stroke-linecap:round;stroke-linejoin:round;stroke-miterlimit:10;}
	.st6{fill:#ECC88A;stroke:#ECC88A;stroke-width:0.7254;stroke-linecap:round;stroke-linejoin:round;stroke-miterlimit:10;}
	.st7{fill:url(#SVGID_3_);}
	.st8{fill:#EECD87;}
	.st9{fill:#EDCB8D;}
	.st10{fill:#E0A66E;}
	.st11{fill:#737283;}
	.st12{fill:none;stroke:#E0A66E;stroke-width:0.7254;stroke-linecap:round;stroke-linejoin:round;stroke-miterlimit:10;}
	.st13{fill:#C3ABBC;}
	.st14{fill:#804021;stroke:#804021;stroke-width:0.7254;stroke-linecap:round;stroke-linejoin:round;stroke-miterlimit:10;}
	.st15{fill:#502217;stroke:#502217;stroke-width:0.7254;stroke-linecap:round;stroke-linejoin:round;stroke-miterlimit:10;}
	.st16{fill:#502217;}
	.st17{fill:#A95E27;}
	.st18{fill:#D78B29;stroke:#B06829;stroke-width:0.5078;stroke-miterlimit:10;}
	.st19{fill:#D78B29;}
	.st20{fill:#B06829;}
	.st21{fill:#95622D;}
	.st22{fill:#D27B32;stroke:#B06829;stroke-width:0.1813;stroke-miterlimit:10;}
	.st23{fill:#E5B334;}
	.st24{fill:none;stroke:#201313;stroke-width:0.7254;stroke-linecap:round;stroke-linejoin:round;stroke-miterlimit:10;}
	.st25{fill:#ECCA8E;}
	.st26{fill:#908B87;}
	.st27{fill:#506565;}
	.st28{fill:#DEDBD5;}
	.st29{fill:#DAD8BB;}
	.st30{fill:#08090A;}
	.st31{fill:none;stroke:#824E29;stroke-width:0.7254;stroke-linecap:round;stroke-linejoin:round;stroke-miterlimit:10;}
	.st32{fill:#824E29;}
	.st33{fill:none;stroke:#D98FA0;stroke-width:2.1762;stroke-linecap:round;stroke-linejoin:round;stroke-miterlimit:10;}
	.st34{fill:#2C1A19;}
	.st35{fill:#57AAD4;stroke:#57AAD4;stroke-width:0.7254;stroke-linecap:round;stroke-linejoin:round;stroke-miterlimit:10;}
	.st36{fill:#188DB3;stroke:#188DB3;stroke-width:0.7254;stroke-linecap:round;stroke-linejoin:round;stroke-miterlimit:10;}
	.st37{fill:#235F91;}
	.st38{fill:#235F91;stroke:#235F91;stroke-width:0.7254;stroke-linecap:round;stroke-linejoin:round;stroke-miterlimit:10;}
	.st39{fill:#1B96D4;}
	.st40{fill:none;stroke:#111216;stroke-width:0.7254;stroke-miterlimit:10;}
	.st41{fill:none;stroke:#443A69;stroke-width:0.7254;stroke-linecap:round;stroke-miterlimit:10;}
	.st42{fill:#8580AF;stroke:#3A353E;stroke-width:0.7254;stroke-miterlimit:10;}
	.st43{fill:#8580AF;}
	.st44{fill:#DB965E;}
	.st45{fill:none;stroke:#A85025;stroke-width:0.7254;stroke-linecap:round;stroke-linejoin:round;stroke-miterlimit:10;}
	.st46{fill:none;stroke:#DB965E;stroke-width:0.7254;stroke-linecap:round;stroke-linejoin:round;stroke-miterlimit:10;}
	.st47{fill:#F3F3F3;}
	.st48{fill:#D5D6D9;}
	.st49{fill:none;stroke:#232322;stroke-width:0.7254;stroke-linecap:round;stroke-miterlimit:10;}
	.st50{fill:#A85025;}
	.st51{fill:url(#SVGID_4_);}
	.st52{fill:#EDCC88;}
	.st53{fill:none;stroke:#9E5927;stroke-width:0.7254;stroke-linecap:round;stroke-linejoin:round;stroke-miterlimit:10;}
	.st54{fill:none;stroke:#9E5927;stroke-width:0.5078;stroke-linecap:round;stroke-linejoin:round;stroke-miterlimit:10;}
	.st55{fill:#E6B979;}
</style>
<g>
	<g>
		<g>
			<path class="st0" d="M210.9,73.57h-18.11V30.3h17.38c8.45,0,13.37,4.74,13.37,12.16c0,4.8-3.16,7.9-5.35,8.93
				c2.61,1.22,5.96,3.95,5.96,9.72C224.15,69.2,218.62,73.57,210.9,73.57z M209.51,37.84h-8.27v9.97h8.27
				c3.59,0,5.59-2.01,5.59-4.98S213.09,37.84,209.51,37.84z M210.05,55.4h-8.81v10.64h8.81c3.83,0,5.65-2.43,5.65-5.35
				C215.71,57.77,213.88,55.4,210.05,55.4z"/>
			<path class="st0" d="M249.86,73.94c-8.87,0-15.92-6.02-15.92-15.19V30.3h8.45v28.14c0,4.98,2.92,7.96,7.48,7.96
				c4.56,0,7.54-2.98,7.54-7.96V30.3h8.39v28.44C265.78,67.92,258.73,73.94,249.86,73.94z"/>
			<path class="st0" d="M303.71,69.01c-3.34,3.4-7.35,4.92-12.22,4.92c-4.62,0-8.51-1.58-11.67-4.74c-1.88-1.88-3.04-4.07-3.52-6.5
				c-0.49-2.43-0.73-6.02-0.73-10.76c0-4.74,0.24-8.33,0.73-10.76c0.49-2.49,1.64-4.62,3.52-6.5c3.16-3.16,7.05-4.74,11.67-4.74
				c9.85,0,15.13,6.32,16.29,13.86h-8.51c-1.03-4.19-3.59-6.32-7.78-6.32c-2.25,0-4.07,0.79-5.41,2.31
				c-1.58,2.01-2.07,3.59-2.07,12.16c0,8.51,0.36,10.21,2.07,12.22c1.28,1.52,3.1,2.25,5.41,2.25c2.49,0,4.5-0.79,6.02-2.43
				c1.28-1.46,1.94-3.4,1.94-5.77v-1.64h-7.96v-7.05h16.35v6.32C307.84,62.15,306.69,65.85,303.71,69.01z"/>
			<path class="st0" d="M356.59,73.57V55.46h-14.65v18.11h-8.45V30.3h8.45v17.69h14.65V30.3h8.45v43.27H356.59z"/>
			<path class="st0" d="M392.2,73.94c-8.87,0-15.92-6.02-15.92-15.19V30.3h8.45v28.14c0,4.98,2.92,7.96,7.48,7.96
				c4.56,0,7.54-2.98,7.54-7.96V30.3h8.39v28.44C408.12,67.92,401.07,73.94,392.2,73.94z"/>
			<path class="st0" d="M444.95,73.57l-17.14-26.56v26.56h-8.45V30.3h7.54l17.14,26.5V30.3h8.45v43.27H444.95z"/>
			<path class="st0" d="M480.93,37.84v35.74h-8.45V37.84h-11.3V30.3h31.06v7.54H480.93z"/>
			<path class="st0" d="M500.93,73.57V30.3h28.5v7.54h-20.06v10.15h17.08v7.54h-17.08v10.51h20.06v7.54H500.93z"/>
			<path class="st0" d="M562.5,73.57l-8.45-17.26h-6.08v17.26h-8.45V30.3h16.96c8.81,0,14.04,6.02,14.04,13.25
				c0,6.08-3.71,9.85-7.9,11.37l9.66,18.66H562.5z M555.93,37.84h-7.96v11.43h7.96c3.71,0,6.14-2.37,6.14-5.71
				C562.07,40.21,559.64,37.84,555.93,37.84z"/>
			<path class="st0" d="M593,73.94c-6.56,0-11.55-1.4-15.8-5.71l5.47-5.47c2.73,2.73,6.44,3.65,10.45,3.65
				c4.98,0,7.66-1.88,7.66-5.35c0-1.52-0.42-2.8-1.34-3.65c-0.85-0.79-1.82-1.22-3.83-1.52l-5.23-0.73
				c-3.71-0.55-6.44-1.7-8.39-3.59c-2.07-2.07-3.1-4.86-3.1-8.51c0-7.72,5.71-13.13,15.07-13.13c5.96,0,10.27,1.46,13.98,5.04
				l-5.35,5.29c-2.73-2.61-6.02-2.98-8.87-2.98c-4.5,0-6.69,2.49-6.69,5.47c0,1.09,0.37,2.25,1.28,3.1c0.85,0.79,2.25,1.46,4.01,1.7
				l5.11,0.73c3.95,0.55,6.44,1.64,8.26,3.34c2.31,2.19,3.34,5.35,3.34,9.18C609.05,69.2,602.06,73.94,593,73.94z"/>
		</g>
		<g>
			<path class="st0" d="M136.42,114.28c-2.36,0-3.87-0.65-5.33-2.11l0.85-0.85c1.44,1.44,2.63,1.89,4.54,1.89
				c2.54,0,4.12-1.21,4.12-3.31c0-0.97-0.27-1.73-0.88-2.25c-0.61-0.47-0.99-0.67-2.32-0.85l-1.87-0.29
				c-1.21-0.18-2.16-0.56-2.86-1.17c-0.83-0.7-1.26-1.69-1.26-2.95c0-2.7,1.89-4.39,4.97-4.39c1.98,0,3.24,0.54,4.61,1.73
				l-0.79,0.79c-0.94-0.9-2-1.48-3.89-1.48c-2.34,0-3.71,1.26-3.71,3.31c0,0.92,0.27,1.62,0.83,2.09c0.56,0.47,1.48,0.83,2.38,0.99
				l1.73,0.27c1.51,0.2,2.2,0.5,2.86,1.06c0.88,0.72,1.39,1.82,1.39,3.1C141.82,112.57,139.77,114.28,136.42,114.28z"/>
			<path class="st0" d="M154.62,98.13h9.72v1.08h-8.5v6.32h7.24v1.08h-7.24v6.46h8.5v1.08h-9.72V98.13z"/>
			<path class="st0" d="M185.1,110.25h-7.47l-1.39,3.89h-1.3l5.89-16.01h1.08l5.89,16.01h-1.3L185.1,110.25z M178.02,109.17h6.7
				l-3.35-9.42L178.02,109.17z"/>
			<path class="st0" d="M205.24,106.77h-4.41v7.38h-1.21V98.13h6.1c2.61,0,4.59,1.51,4.59,4.29c0,2.41-1.44,3.94-3.69,4.32l3.87,7.4
				h-1.42L205.24,106.77z M205.55,99.21h-4.72v6.48h4.72c2.07,0,3.53-1.01,3.53-3.24C209.08,100.22,207.62,99.21,205.55,99.21z"/>
			<path class="st0" d="M228.25,114.28c-1.53,0-2.95-0.58-4-1.64c-1.46-1.46-1.48-2.9-1.48-6.5c0-3.62,0.02-5.04,1.48-6.5
				c1.06-1.06,2.47-1.64,4-1.64c2.88,0,4.9,1.8,5.44,4.68h-1.24c-0.47-2.23-2.05-3.6-4.21-3.6c-1.15,0-2.23,0.43-3.04,1.24
				c-1.15,1.15-1.24,2.41-1.24,5.83c0,3.42,0.09,4.68,1.24,5.83c0.81,0.81,1.89,1.24,3.04,1.24c2.16,0,3.78-1.37,4.25-3.6h1.19
				C233.16,112.48,231.09,114.28,228.25,114.28z"/>
			<path class="st0" d="M256.44,106.61h-8.34v7.54h-1.21V98.13h1.21v7.4h8.34v-7.4h1.21v16.01h-1.21V106.61z"/>
			<path class="st0" d="M271.61,98.13h1.21v16.01h-1.21V98.13z"/>
			<path class="st0" d="M287.99,100.22v13.92h-1.21V98.13h1.21l9.24,13.88V98.13h1.21v16.01h-1.21L287.99,100.22z"/>
			<path class="st0" d="M321.46,112.43c-1.06,1.17-2.59,1.84-4.21,1.84c-1.53,0-2.95-0.58-4-1.64c-1.46-1.46-1.48-2.9-1.48-6.5
				c0-3.62,0.02-5.04,1.48-6.5c1.06-1.06,2.47-1.64,4-1.64c2.79,0,4.99,1.87,5.47,4.68h-1.21c-0.47-2.23-2.09-3.6-4.25-3.6
				c-1.15,0-2.23,0.43-3.04,1.24c-1.15,1.15-1.24,2.41-1.24,5.83c0,3.42,0.09,4.68,1.24,5.83c0.81,0.81,1.89,1.24,3.04,1.24
				c1.26,0,2.5-0.54,3.33-1.55c0.7-0.88,0.97-1.8,0.97-3.17v-1.44h-4.3v-1.08h5.51v2.61C322.77,110.25,322.43,111.42,321.46,112.43z
				"/>
			<path class="st0" d="M354.78,114.28c-2.36,0-3.87-0.65-5.33-2.11l0.85-0.85c1.44,1.44,2.63,1.89,4.54,1.89
				c2.54,0,4.12-1.21,4.12-3.31c0-0.97-0.27-1.73-0.88-2.25c-0.61-0.47-0.99-0.67-2.32-0.85l-1.87-0.29
				c-1.21-0.18-2.16-0.56-2.86-1.17c-0.83-0.7-1.26-1.69-1.26-2.95c0-2.7,1.89-4.39,4.97-4.39c1.98,0,3.24,0.54,4.61,1.73
				l-0.79,0.79c-0.94-0.9-2-1.48-3.89-1.48c-2.34,0-3.71,1.26-3.71,3.31c0,0.92,0.27,1.62,0.83,2.09c0.56,0.47,1.48,0.83,2.38,0.99
				l1.73,0.27c1.51,0.2,2.2,0.5,2.86,1.06c0.88,0.72,1.39,1.82,1.39,3.1C360.18,112.57,358.13,114.28,354.78,114.28z"/>
			<path class="st0" d="M372.98,98.13h9.72v1.08h-8.5v6.32h7.24v1.08h-7.24v6.46h8.5v1.08h-9.72V98.13z"/>
			<path class="st0" d="M395.44,98.13h9.72v1.08h-8.5v6.32h7.24v1.08h-7.24v6.46h8.5v1.08h-9.72V98.13z"/>
			<path class="st0" d="M422.93,105.17l-3.82,4.63v4.34h-1.21V98.13h1.21v10.01l8.12-10.01h1.46l-4.95,6.12l5.78,9.9h-1.44
				L422.93,105.17z"/>
			<path class="st0" d="M464.16,110.25h-7.47l-1.39,3.89H454l5.89-16.01h1.08l5.89,16.01h-1.3L464.16,110.25z M457.08,109.17h6.7
				l-3.35-9.42L457.08,109.17z"/>
			<path class="st0" d="M479.89,100.22v13.92h-1.21V98.13h1.21l9.24,13.88V98.13h1.21v16.01h-1.21L479.89,100.22z"/>
			<path class="st0" d="M513.68,112.68c-0.97,0.97-2.32,1.46-4,1.46h-5.38V98.13h5.38c1.69,0,3.04,0.49,4,1.46
				c1.62,1.62,1.55,4.16,1.55,6.32S515.3,111.06,513.68,112.68z M512.83,100.45c-0.92-0.97-2.16-1.24-3.44-1.24h-3.87v13.85h3.87
				c1.28,0,2.52-0.27,3.44-1.24c1.26-1.33,1.19-4.12,1.19-5.92C514.02,104.11,514.09,101.77,512.83,100.45z"/>
			<path class="st0" d="M548.91,106.77h-4.41v7.38h-1.21V98.13h6.1c2.61,0,4.59,1.51,4.59,4.29c0,2.41-1.44,3.94-3.69,4.32l3.87,7.4
				h-1.42L548.91,106.77z M549.23,99.21h-4.72v6.48h4.72c2.07,0,3.53-1.01,3.53-3.24C552.76,100.22,551.3,99.21,549.23,99.21z"/>
			<path class="st0" d="M567.07,98.13h9.72v1.08h-8.5v6.32h7.24v1.08h-7.24v6.46h8.5v1.08h-9.72V98.13z"/>
			<path class="st0" d="M595.39,107.35h-4.66v6.79h-1.21V98.13h5.87c2.77,0,4.83,1.66,4.83,4.61
				C600.23,105.66,598.16,107.35,595.39,107.35z M595.26,99.21h-4.52v7.06h4.52c2.23,0,3.76-1.12,3.76-3.53
				S597.48,99.21,595.26,99.21z"/>
			<path class="st0" d="M621.58,112.64c-1.06,1.06-2.47,1.64-4,1.64s-2.95-0.58-4-1.64c-1.46-1.46-1.48-2.9-1.48-6.5
				c0-3.62,0.02-5.04,1.48-6.5c1.06-1.06,2.47-1.64,4-1.64s2.95,0.58,4,1.64c1.46,1.46,1.48,2.88,1.48,6.5
				C623.06,109.74,623.04,111.18,621.58,112.64z M620.61,100.31c-0.81-0.81-1.89-1.24-3.04-1.24c-1.15,0-2.23,0.43-3.04,1.24
				c-1.15,1.15-1.24,2.41-1.24,5.83c0,3.42,0.09,4.68,1.24,5.83c0.81,0.81,1.89,1.24,3.04,1.24c1.15,0,2.23-0.43,3.04-1.24
				c1.15-1.15,1.24-2.41,1.24-5.83C621.85,102.72,621.76,101.46,620.61,100.31z"/>
			<path class="st0" d="M642.01,106.77h-4.41v7.38h-1.21V98.13h6.1c2.61,0,4.59,1.51,4.59,4.29c0,2.41-1.44,3.94-3.69,4.32l3.87,7.4
				h-1.42L642.01,106.77z M642.32,99.21h-4.72v6.48h4.72c2.07,0,3.53-1.01,3.53-3.24C645.86,100.22,644.39,99.21,642.32,99.21z"/>
			<path class="st0" d="M664.35,114.14h-1.21V99.21h-4.77v-1.08h10.77v1.08h-4.79V114.14z"/>
		</g>
		<line class="st1" x1="131.09" y1="87.74" x2="670.45" y2="87.74"/>
	</g>
	<g>
		<radialGradient id="SVGID_1_" cx="68.9431" cy="130.8135" r="18.7861" gradientUnits="userSpaceOnUse">
			<stop  offset="5.586592e-03" style="stop-color:#CECDCE"/>
			<stop  offset="0.3761" style="stop-color:#D0CFD0"/>
			<stop  offset="0.6262" style="stop-color:#D8D7D8"/>
			<stop  offset="0.8401" style="stop-color:#E6E4E5"/>
			<stop  offset="1" style="stop-color:#F5F4F4"/>
		</radialGradient>
		<path class="st2" d="M43.69,125.51c0,0,1.66-2.53,4.58-2.92s21.72,2.53,32.62,0.68c10.91-1.85,9.84,4.19,9.84,4.19
			s4.58,0.49,3.21,2.24s-19.77,2.14-19.77,2.14s-9.35-0.1-9.84,3.02s-1.56,4.67-3.7,4.09C58.49,138.37,43.69,125.51,43.69,125.51z"
			/>
		<radialGradient id="SVGID_2_" cx="53.6839" cy="146.0621" r="7.1579" gradientUnits="userSpaceOnUse">
			<stop  offset="5.586592e-03" style="stop-color:#CECDCE"/>
			<stop  offset="0.3761" style="stop-color:#D0CFD0"/>
			<stop  offset="0.6262" style="stop-color:#D8D7D8"/>
			<stop  offset="0.8401" style="stop-color:#E6E4E5"/>
			<stop  offset="1" style="stop-color:#F5F4F4"/>
		</radialGradient>
		<path class="st3" d="M53.24,143.43c0,0-1.27,0.78,0.88,2.05s5.65,0.19,5.65,0.19s4.67,0.49,2.82,1.66s-13.15,3.51-15.29,2.34
			s-4.09-2.05-2.14-2.53c1.95-0.49,6.23-5.36,7.6-4.97S53.24,143.43,53.24,143.43z"/>
		<path class="st4" d="M53.71,134.37c0,0-0.11,2.11-2.08,4.07c-1.96,1.96-4.01,3.71-4.01,3.71s-2.44,1.86-2.36,2.8
			c0.08,0.93-0.44,1.37-0.44,1.37s-0.1,0.28,1.31,0.15c2.88-0.28,8.03-6.2,10.94-7.25c3.2-1.77,1.9-2.57,1.68-3.27
			c-0.44-1.16-2.47-1.91-3.68-1.9S53.71,134.37,53.71,134.37z"/>
		<path class="st5" d="M58.7,135.65c0,0,0.69,1.78,0.31,2.27c-0.38,0.49-5.09,2.04-7.07,4.61c-1.98,2.57-6.4,3.96-7.54,3.73"/>
		<path class="st6" d="M12.11,104.76l-0.35,3.09c0,0-0.43-0.43-0.43,0.53c0,0.96,0,1.33-0.43,1.33s-0.51,0.72-1.04,0.67
			c-0.53-0.05-5,0.37-4.95-0.08c0.05-0.45,0.05-0.67,0.05-0.67H4.36l0.05-1.2H3.19l0.05-2.02l0.48,0.05l-0.13-2.53l0.69-0.03
			l0.03-0.75l1.28,0.03l0.08-0.67h3.35l6.89-8.81l0.75-1.04l4.1,1.94l-1.33,2.63L12.11,104.76z"/>
		<radialGradient id="SVGID_3_" cx="34.3329" cy="142.4152" r="8.9618" gradientUnits="userSpaceOnUse">
			<stop  offset="5.586592e-03" style="stop-color:#CECDCE"/>
			<stop  offset="0.3761" style="stop-color:#D0CFD0"/>
			<stop  offset="0.6262" style="stop-color:#D8D7D8"/>
			<stop  offset="0.8401" style="stop-color:#E6E4E5"/>
			<stop  offset="1" style="stop-color:#F5F4F4"/>
		</radialGradient>
		<path class="st7" d="M44.67,135.93c0,0-4.58-0.49-7.4,0.78s-6.33,3.12-8.96,2.43s-4.19,0.29-3.41,0.88s6.82-0.1,7.11,2.14
			s-4.19,3.99-5.45,4.58s-4.67,1.46-2.14,2.14s9.64-2.14,9.64-2.14l7.4-3.51c0,0,3.99-7.11,3.7-7.11S44.67,135.93,44.67,135.93z"/>
		<path class="st8" d="M14.7,137.27l-4.64,0.04c0,0-1.07-0.04-0.34-0.77c0.73-0.73,0.99-0.77,1.8-0.82
			c0.82-0.04,2.75-0.17,3.18,0.34c0.43,0.52,0.09,1.37,0.09,1.37"/>
		<path class="st9" d="M31.5,124.6c-0.69,0.47-1.04,0.82-1.76,2.06c-2.6,4.49-3.17,6.16-4,9.24c-1.16,4.33,0.26,9.06-0.34,11.3
			c-1.93,0.73-8.16-7.22-8.16-7.22s1.72-1.76,2.75-4.55c1.03-2.79,2.32-8.16,2.84-10.48s1.85-4,1.85-4L31.5,124.6z"/>
		<path class="st10" d="M24.5,122.36l-0.09-1.12l6.53,3.35c0,0-5.5,11.73-5.67,13.45c-1.12,4.47,0.52,8.72-0.47,8.59
			c-0.99-0.13-0.52-7.04-0.52-7.04s2.49-11.04,1.55-11.86c-0.95-0.82-2.62-2.28-1.89-2.36c0.73-0.09,2.49,1.29,3.18,0.64
			c0.69-0.64,1.29-1.63,0.73-2.02C27.29,123.61,24.5,122.36,24.5,122.36z"/>
		<path class="st4" d="M10.84,136.97c0,0,4.47-0.47,7.82,2.32s4.55,5.54,6.96,7.26c-0.43,1.16,0.52,0-0.47,1.2
			s-8.94-8.81-11.81-8.63s-4.73,2.71-5.67,1.93C6.71,140.28,6.71,137.57,10.84,136.97z"/>
		<path class="st9" d="M40.99,121.42c0,0,8.46,9.58,12.46,11.43c4,1.85,0.68,5.2,0.68,5.2l-4.04,3.69c0,0-3.48,2.4-4.04,3.3
			c-0.56,0.9-2.03,1.86-2.72,0.74c-0.69-1.12-2.22-3.79-1.83-4.44s4.25-4.47,4.25-4.47s2.06-1.07,0.82-2.66
			c-1.25-1.59-11.3-7.47-12.16-8.85S40.99,121.42,40.99,121.42z"/>
		<path class="st10" d="M35.5,125.07c0,0-1.89,0.64-1.37-0.34c0.52-0.99,4.64-3.05,4.64-3.05l2.49-0.3c0,0,4.21,5.41,6.44,7.09
			c2.23,1.68,6.53,4.41,7.39,5.2c1.8,1.66-0.17,4.16-1.42,4.67s-0.3-3.12-1.2-3.98s-6.66-6.19-6.66-6.19s-2.75-3.18-3.91-3.09
			s-2.06,1.29-3.09,2.1c-1.03,0.82-2.06,0.82-1.25-0.17c0.82-0.99,2.32-2.32,2.02-2.66s-0.9-0.69-2.1-0.39
			C36.27,124.25,35.5,125.07,35.5,125.07z"/>
		<path class="st11" d="M8.82,138.86c0,0,4.64-1.37,7.82,1.12c2.27,1.78,8.55,6.4,8.51,7.78s-1.8,2.88-5.28,2.15
			c-1.44-0.3-3.46-2.41-5.71-4.04c-3.19-2.31-6.51-4.33-6.49-4.81C7.7,140.23,7.62,139.63,8.82,138.86z"/>
		<path class="st12" d="M49.97,133.96c0,0,1.42,1.2,1.12,2.23"/>
		<path class="st13" d="M22.14,142.94c0,0-0.26-4.26-3.01-5.41c-1.9-0.79-3.61-1.59-5.15-1.46c-1.55,0.13,1.7,1.51,3.51,2.58
			s4.14,3.61,4.14,3.61L22.14,142.94z"/>
		<path class="st14" d="M33.58,125.86l1.86-2.57l7.27-2.88l-3.37-4.74l0.97-4.12l-20.93-1.32c0,0,3.21,2.25,3.21,5.75
			c0,3.5-2.04,4.78-1.11,5.18c1.73,0.74,2.16,0.76,2.25,1.03c0.25,0.14,0.13-1.28,0.43-1.13C27.41,122.6,33.58,125.86,33.58,125.86z
			"/>
		<polygon class="st15" points="39.25,115.76 37.21,119.17 39.47,122.05 42.48,120.37 39.43,115.58 		"/>
		<polygon class="st16" points="19.57,110.42 23.08,116.51 25.65,111.73 		"/>
		<path class="st17" d="M30.31,124.51c0,0,3.36-2.27,3.76-3.52c0.4-1.25,0.09-3.06,0.09-3.06l-9.66-3.94l-3.19,5.67L30.31,124.51z"
			/>
		<path class="st18" d="M21.95,36.04c0,0,10.31-8.24,21.99-2.06c10.99,5.5,8.93,17.18,8.93,17.18L21.95,36.04z"/>
		<g>
			<path class="st19" d="M48.75,68.34c0,0,12.37,3.44,13.74-2.06c1.37-5.5-11.1-21.18-26.8-26.8c-8.24-2.75-15.8-4.12-15.8-4.12
				v2.06c0,0-2.75-2.75-6.18-3.44c-8.24-2.06-26.11,2.75,0.69,21.3c0-4.81,0-4.81,0-6.87c0.69-6.87,5.5-5.5,5.5-5.5
				S48.06,49.1,48.75,59.4C48.75,66.27,48.75,68.34,48.75,68.34z"/>
			<path class="st20" d="M48.77,68.32c2.84,0.69,5.82,1.19,8.77,0.98c1.44-0.14,3-0.46,4.04-1.52c0.51-0.52,0.84-1.21,0.92-1.93
				c0.08-0.73-0.04-1.46-0.22-2.17c-0.82-2.84-2.51-5.35-4.29-7.69c-1.83-2.32-3.87-4.48-6.08-6.44c-4.41-3.93-9.43-7.22-14.92-9.42
				c-2.75-1.05-5.62-1.84-8.47-2.62c-2.86-0.75-5.75-1.43-8.65-1.98l0.2-0.17l0,2.06l0,0.41l-0.3-0.28
				c-1.36-1.27-2.96-2.33-4.71-2.98c-1.76-0.6-3.65-0.86-5.52-0.82c-1.87,0.04-3.75,0.33-5.48,1.03c-0.85,0.36-1.66,0.84-2.32,1.47
				c-0.65,0.63-1.11,1.45-1.26,2.34c-0.15,0.89-0.03,1.82,0.3,2.69c0.12,0.45,0.36,0.85,0.54,1.28c0.22,0.41,0.47,0.81,0.7,1.21
				c1.02,1.57,2.31,2.96,3.66,4.27c2.71,2.62,5.73,4.91,8.84,7.06l-0.37,0.19l-0.01-6.87V48.4l0-0.01c0.14-1.1,0.34-2.22,0.84-3.25
				c0.49-1.02,1.35-1.94,2.46-2.33c0.55-0.2,1.14-0.28,1.71-0.25c0.59,0.03,1.13,0.21,1.66,0.32c1.07,0.26,2.13,0.54,3.19,0.84
				c4.23,1.19,8.4,2.6,12.43,4.38c2.01,0.89,3.98,1.89,5.84,3.07c1.85,1.18,3.64,2.54,4.99,4.31c0.66,0.89,1.2,1.89,1.45,2.98
				l0.12,0.83c0.03,0.28,0,0.55,0.01,0.82l-0.01,1.64L48.77,68.32z M48.73,68.35l-0.06-6.58l-0.01-1.65
				c-0.01-0.27,0.01-0.56-0.02-0.82l-0.13-0.8c-0.27-1.05-0.8-2.01-1.44-2.87c-1.33-1.72-3.1-3.05-4.95-4.2
				c-1.85-1.16-3.82-2.13-5.82-3c-4.01-1.74-8.19-3.1-12.41-4.26c-1.06-0.29-2.12-0.56-3.18-0.81c-0.54-0.12-1.06-0.28-1.57-0.3
				c-0.52-0.03-1.04,0.04-1.52,0.22c-0.97,0.34-1.73,1.14-2.19,2.08c-0.46,0.95-0.66,2.02-0.8,3.08l0-0.02l-0.01,6.87l0,0.45
				l-0.37-0.26c-3.11-2.17-6.15-4.48-8.88-7.13c-1.36-1.33-2.66-2.74-3.71-4.35c-0.25-0.41-0.5-0.82-0.72-1.25
				c-0.19-0.45-0.44-0.86-0.56-1.34c-0.34-0.91-0.47-1.92-0.31-2.9c0.16-0.98,0.68-1.89,1.38-2.57c0.71-0.69,1.56-1.18,2.45-1.55
				c1.8-0.72,3.72-1.01,5.63-1.04c1.92-0.03,3.83,0.24,5.66,0.87c1.81,0.68,3.42,1.76,4.83,3.08l-0.3,0.12l0-2.06l0-0.21l0.2,0.04
				c2.92,0.56,5.8,1.25,8.67,2.01c2.86,0.79,5.72,1.58,8.5,2.66c5.52,2.23,10.55,5.56,14.96,9.53c2.21,1.98,4.25,4.16,6.08,6.5
				c1.78,2.35,3.47,4.88,4.29,7.76c0.18,0.72,0.3,1.47,0.21,2.22c-0.09,0.75-0.43,1.46-0.96,2c-1.09,1.08-2.66,1.39-4.11,1.53
				C54.57,69.58,51.62,69.09,48.73,68.35z"/>
		</g>
		<g>
			<path class="st20" d="M11.69,39.5c-0.04,1-0.32,1.89-0.77,2.71c-0.25,0.4-0.6,0.75-0.82,1.16c-0.22,0.41-0.36,0.86-0.46,1.32
				c-0.18,0.94-0.5,1.81-0.88,2.66c-0.43,0.83-0.92,1.62-1.62,2.33l-0.1-0.04c0.06-0.99,0.32-1.89,0.66-2.76
				c0.38-0.85,0.82-1.67,1.39-2.43c0.28-0.38,0.52-0.78,0.68-1.22c0.16-0.44,0.19-0.93,0.31-1.38c0.3-0.88,0.78-1.69,1.5-2.38
				L11.69,39.5z"/>
		</g>
		<g>
			<path class="st20" d="M7.1,39.17c-0.3,1.32-0.79,2.55-1.33,3.75c-0.56,1.2-1.18,2.37-1.99,3.45c0.29-1.32,0.79-2.55,1.33-3.75
				C5.67,41.42,6.29,40.25,7.1,39.17z"/>
		</g>
		<g>
			<path class="st20" d="M2.73,40.82c1.53,0.59,3.06,1.2,4.57,1.83c0.76,0.31,1.54,0.58,2.26,0.96c0.72,0.39,1.43,0.8,2.1,1.33
				l-0.03,0.07c-0.83-0.16-1.6-0.44-2.37-0.73c-0.76-0.3-1.47-0.72-2.2-1.1c-1.46-0.75-2.91-1.51-4.36-2.29L2.73,40.82z"/>
		</g>
		<g>
			<path class="st20" d="M10.95,47.76c-1.41-0.36-2.81-0.74-4.2-1.13c-0.7-0.19-1.41-0.34-2.08-0.62c-0.67-0.28-1.33-0.58-1.96-1
				l0.02-0.07c0.75,0.04,1.46,0.2,2.16,0.38c0.7,0.18,1.36,0.49,2.04,0.76c1.35,0.52,2.7,1.06,4.04,1.62L10.95,47.76z"/>
		</g>
		<g>
			<path class="st20" d="M15.77,40.85c0.03,0.51-0.06,0.93-0.19,1.33c-0.13,0.4-0.3,0.77-0.52,1.12c-0.22,0.35-0.49,0.66-0.79,0.94
				c-0.31,0.29-0.66,0.54-1.14,0.73c-0.03-0.51,0.05-0.94,0.18-1.34c0.13-0.4,0.3-0.77,0.53-1.12c0.22-0.34,0.49-0.66,0.8-0.94
				C14.94,41.29,15.29,41.03,15.77,40.85z"/>
		</g>
		<g>
			<path class="st20" d="M6.16,40.13c1.53,0.47,3.05,0.97,4.56,1.48c0.76,0.25,1.53,0.46,2.26,0.79c0.73,0.33,1.44,0.69,2.12,1.16
				l-0.03,0.07c-0.82-0.1-1.59-0.31-2.35-0.55c-0.76-0.24-1.48-0.6-2.21-0.93c-1.47-0.63-2.92-1.28-4.37-1.95L6.16,40.13z"/>
		</g>
		<g>
			<path class="st20" d="M39.14,36.68c1.21-0.14,2.38,0.05,3.47,0.45c0.54,0.22,1.05,0.57,1.59,0.77c0.54,0.22,1.1,0.35,1.68,0.46
				c1.17,0.21,2.28,0.62,3.33,1.19c1.01,0.62,1.99,1.41,2.54,2.52c0.01,0.03,0,0.06-0.03,0.08c-0.02,0.01-0.04,0.01-0.05,0
				c-1.03-0.6-2.01-1.07-3.02-1.57l-1.48-0.81c-0.51-0.25-1-0.55-1.5-0.84c-0.5-0.3-1.03-0.54-1.58-0.69
				c-0.56-0.14-1.16-0.15-1.73-0.23c-1.12-0.23-2.2-0.61-3.25-1.21c-0.03-0.01-0.04-0.05-0.02-0.08
				C39.1,36.69,39.12,36.68,39.14,36.68z"/>
		</g>
		<g>
			<path class="st20" d="M38.23,39.12c1.45,0.11,2.82,0.51,4.1,1.11c0.62,0.34,1.22,0.75,1.85,1.07c0.63,0.31,1.3,0.55,1.98,0.75
				c0.68,0.21,1.36,0.44,2,0.75c0.65,0.28,1.29,0.6,1.91,0.98c1.19,0.77,2.38,1.74,3.01,3.09c0.01,0.03,0,0.06-0.03,0.07
				c-0.02,0.01-0.04,0.01-0.06-0.01l0,0c-1.13-0.86-2.32-1.48-3.52-2.16l-1.78-1.06c-0.6-0.35-1.19-0.72-1.78-1.12
				c-0.6-0.38-1.2-0.73-1.87-0.97c-0.66-0.24-1.37-0.36-2.04-0.55c-1.33-0.44-2.59-1.04-3.79-1.85c-0.03-0.02-0.03-0.05-0.02-0.08
				C38.19,39.12,38.21,39.11,38.23,39.12z"/>
		</g>
		<g>
			<path class="st20" d="M46.74,36.72c0.44,0.62,0.6,1.27,0.56,1.94c-0.04,0.33-0.2,0.68-0.21,1.01c-0.02,0.33,0.06,0.66,0.17,0.98
				c0.24,0.65,0.32,1.32,0.3,2c-0.03,0.34-0.1,0.68-0.22,1.02c-0.12,0.33-0.29,0.69-0.61,0.93c-0.03,0.02-0.06,0.01-0.08-0.01
				c-0.01-0.01-0.01-0.02-0.01-0.03l0-0.02c-0.08-0.68-0.22-1.27-0.24-1.92c0.03-0.64,0.07-1.28,0.26-1.94
				c0.09-0.33,0.13-0.66,0.08-0.99c-0.05-0.33-0.25-0.64-0.34-0.96c-0.13-0.65-0.08-1.3,0.23-1.99c0.01-0.03,0.05-0.05,0.08-0.03
				C46.72,36.71,46.73,36.72,46.74,36.72z"/>
		</g>
		<g>
			<path class="st20" d="M42.62,35.35c0.44,0.52,0.61,1.08,0.57,1.66c-0.05,0.29-0.2,0.59-0.21,0.87c-0.01,0.29,0.05,0.57,0.17,0.85
				c0.24,0.56,0.3,1.15,0.29,1.74c-0.08,0.57-0.27,1.23-0.82,1.66c-0.03,0.02-0.06,0.02-0.09-0.01c-0.01-0.01-0.01-0.02-0.01-0.02
				l0-0.01c-0.13-0.62-0.23-1.12-0.24-1.67c0.03-0.54,0.08-1.09,0.28-1.66c0.09-0.28,0.13-0.57,0.08-0.85
				c-0.05-0.28-0.25-0.55-0.34-0.82c-0.13-0.55-0.08-1.11,0.22-1.72c0.02-0.03,0.05-0.05,0.09-0.03
				C42.6,35.34,42.61,35.34,42.62,35.35z"/>
		</g>
		<g>
			<path class="st20" d="M50.48,40.86c0.34,0.49,0.41,0.96,0.29,1.42c-0.09,0.23-0.29,0.44-0.34,0.67
				c-0.06,0.23-0.03,0.46,0.05,0.71c0.17,0.48,0.17,0.96,0.12,1.43c-0.11,0.46-0.31,0.93-0.76,1.3c-0.03,0.02-0.07,0.02-0.09-0.01
				c0,0-0.01-0.01-0.01-0.02c-0.23-0.52-0.3-0.97-0.28-1.43c0.07-0.45,0.18-0.9,0.44-1.33c0.13-0.22,0.2-0.44,0.19-0.68
				c-0.01-0.23-0.17-0.48-0.21-0.71c-0.04-0.47,0.1-0.92,0.51-1.35c0.03-0.03,0.07-0.03,0.1,0C50.47,40.85,50.48,40.85,50.48,40.86z
				"/>
		</g>
		<g>
			<path class="st20" d="M61.46,61.12c-0.02,0.87-0.6,1.66-1.25,2.22c-0.66,0.58-1.45,0.98-2.26,1.25
				c-0.41,0.13-0.82,0.22-1.23,0.32c-0.42,0.05-0.83,0.13-1.25,0.14c-0.84,0.05-1.68-0.01-2.5-0.19c0.81-0.27,1.59-0.45,2.37-0.65
				c0.77-0.21,1.54-0.4,2.27-0.65c0.74-0.23,1.44-0.54,2.11-0.91C60.37,62.27,61,61.83,61.46,61.12z"/>
		</g>
		<g>
			<path class="st20" d="M60.05,68.04c-0.68-0.5-1.02-1.19-1.21-1.93c-0.08-0.37-0.12-0.77-0.06-1.17c0.05-0.39,0.22-0.87,0.63-1.07
				c0.01,0.42,0.13,0.7,0.22,1.03c0.11,0.32,0.19,0.64,0.27,0.96C60.03,66.53,60.16,67.21,60.05,68.04z"/>
		</g>
		<g>
			<path class="st20" d="M53.82,69.21c0.48-1.12,1.17-2.01,1.88-2.88c0.37-0.42,0.74-0.84,1.14-1.24c0.38-0.41,0.8-0.76,1.18-1.23
				c0.05,0.63-0.23,1.22-0.5,1.73c-0.28,0.53-0.63,0.99-0.99,1.44C55.77,67.9,54.92,68.69,53.82,69.21z"/>
		</g>
		<g>
			<path class="st20" d="M53.01,64.59c0.03,0.57-0.15,0.98-0.48,1.27c-0.19,0.13-0.46,0.19-0.62,0.35c-0.16,0.15-0.25,0.36-0.3,0.59
				c-0.09,0.48-0.31,0.86-0.57,1.2c-0.31,0.31-0.67,0.58-1.21,0.71c-0.04,0.01-0.08-0.01-0.08-0.05c0,0,0-0.01,0-0.01
				c-0.01-0.56,0.16-0.98,0.38-1.35c0.27-0.34,0.58-0.65,1.02-0.86c0.21-0.11,0.39-0.25,0.49-0.44c0.11-0.19,0.1-0.47,0.18-0.68
				c0.2-0.39,0.55-0.67,1.11-0.79c0.04-0.01,0.08,0.02,0.08,0.06C53.01,64.58,53.01,64.59,53.01,64.59z"/>
		</g>
		<g>
			<path class="st21" d="M62.15,64.56c0.06-0.09,0.19,0,0.21,0.07c0.05,0.07,0.08,0.15,0.1,0.23c0.04,0.16,0.05,0.33,0.05,0.5
				c-0.01,0.34-0.08,0.67-0.2,0.99c-0.26,0.64-0.72,1.18-1.25,1.6c-1.08,0.85-2.4,1.25-3.68,1.46c-2.59,0.37-5.18,0.04-7.6-0.74
				c2.55-0.07,5.03,0.04,7.43-0.34c1.19-0.17,2.36-0.49,3.36-1.08c0.49-0.3,0.94-0.67,1.27-1.16c0.17-0.24,0.31-0.5,0.39-0.79
				c0.04-0.14,0.07-0.29,0.07-0.44c0.01-0.07,0-0.15-0.01-0.22C62.27,64.59,62.23,64.5,62.15,64.56z"/>
		</g>
		<ellipse class="st22" cx="108.64" cy="11.36" rx="5.49" ry="5.67"/>
		
			<ellipse transform="matrix(0.6528 -0.7576 0.7576 0.6528 31.1329 79.0968)" class="st22" cx="101.85" cy="5.59" rx="0.83" ry="2.75"/>
		<ellipse class="st22" cx="108.72" cy="2.55" rx="0.83" ry="2.46"/>
		
			<ellipse transform="matrix(0.7857 -0.6186 0.6186 0.7857 21.7364 72.5505)" class="st22" cx="115.59" cy="4.9" rx="2.75" ry="0.83"/>
		
			<ellipse transform="matrix(0.6528 -0.7576 0.7576 0.6528 27.201 93.559)" class="st22" cx="115.66" cy="17.11" rx="0.83" ry="2.75"/>
		<ellipse class="st22" cx="108.79" cy="20.15" rx="0.83" ry="2.46"/>
		
			<ellipse transform="matrix(0.7857 -0.6186 0.6186 0.7857 10.8305 66.8555)" class="st22" cx="101.92" cy="17.79" rx="2.75" ry="0.83"/>
		<ellipse class="st22" cx="117.65" cy="11.08" rx="2.75" ry="0.83"/>
		<ellipse class="st22" cx="99.79" cy="11.08" rx="2.75" ry="0.83"/>
		<path class="st23" d="M76.57,72.8c0,0-0.34-1.03,2.75-0.69c2.73,0.3,2.06,4.81,2.06,4.81s-1.37,4.12-4.12,2.06
			c-0.34,1.03,0.69,2.06-1.37,2.06c-1.37,0-1.37-2.06-1.37-2.06s-3.44,2.06-3.44,0c0.16-0.62,0.89-2.13,0-2.75
			c-2.08-1.44-2.75-4.81-1.37-5.5c4.12-2.75,4.93,1.17,5.84,2.4C76.25,74.11,76.57,72.8,76.57,72.8z"/>
		<path class="st24" d="M75.2,68.68c0,0,1.37,4.12,0.69,4.81"/>
		<path class="st25" d="M14.37,45.76l0.37,13.3c0,0-7.9,14.09,8.24,17.86c1.64,0.46,4.47-0.7,4.47,0.34c0,0.69,0,2.75,0,2.75h5.84
			v-3.12c0,0,6.53-1.69,7.9-3.75c1.37-2.06,4.12-3.44,4.12-3.44s1.8,1.07,2.96-0.5c1.16-1.57,4.39-8.69,1.06-8.56
			c-3.33,0.13-6.08-7.43-6.08-7.43l-8.62-5.5l-9.94-2.06C24.7,45.66,17.09,43.11,14.37,45.76z"/>
		<path class="st24" d="M80.01,70.74c0,0-3.26,0.44-4.04,2.62"/>
		<circle class="st26" cx="66.95" cy="85.86" r="1.37"/>
		<circle class="st27" cx="71.08" cy="83.11" r="1.37"/>
		<circle class="st28" cx="62.15" cy="86.54" r="1.37"/>
		<circle class="st29" cx="57.68" cy="85.51" r="1.03"/>
		<ellipse class="st30" cx="19.2" cy="60.78" rx="1.37" ry="2.75"/>
		<ellipse class="st30" cx="35.01" cy="60.78" rx="1.37" ry="2.75"/>
		<path class="st31" d="M24.7,66.27c-2.06,0-2.75-0.69-2.75-2.06c0-1.37,3.44-3.44,3.44-3.44"/>
		<g>
			<path class="st32" d="M31.33,68.68c-0.02,0.62-0.14,1.25-0.37,1.85c-0.24,0.59-0.62,1.16-1.18,1.56
				c-0.55,0.39-1.28,0.64-1.95,0.51c-0.34-0.03-0.64-0.17-0.95-0.27c-0.29-0.15-0.57-0.32-0.82-0.52c-0.02-0.01-0.02-0.04-0.01-0.05
				c0.01-0.01,0.02-0.01,0.03-0.01c0.33,0.01,0.63,0.05,0.92,0.1c0.3-0.01,0.59,0.06,0.87,0.04c0.56,0.02,1.09-0.03,1.59-0.28
				c0.48-0.26,0.88-0.7,1.17-1.22c0.29-0.51,0.51-1.09,0.62-1.69c0-0.02,0.02-0.03,0.04-0.03C31.31,68.65,31.33,68.66,31.33,68.68z"
				/>
		</g>
		<line class="st33" x1="15.27" y1="64.53" x2="18.94" y2="64.53"/>
		<line class="st33" x1="37.26" y1="65.22" x2="40.93" y2="65.22"/>
		<path class="st34" d="M44.03,64.87c0,0-0.1-4.09,4.71-4.09S43.94,43.6,24.7,42.91c-16.15-1.72-13.74,7.56-13.74,7.56
			s1.78-4.41,2.75-3.44c1.03,1.72-0.34,7.9,0.69,4.81s0.69-6.87,3.44-6.87c1.37,0.69,3.44,6.87,6.18,8.24
			c-0.69-2.75-1.29-6.85-1.29-6.85s4.04,5.48,7.48,6.85c-1.37-4.12-1.37-5.5-1.37-5.5s6.18,5.5,8.24,6.18s-2.06-2.06-1.37-4.81
			c2.75,0,7.56,6.18,8.24,7.56C44.62,58.03,44.03,64.87,44.03,64.87z"/>
		<path class="st35" d="M43.46,111.2c0,0-13.51,3.15-24.8-1.25c2.75-7.56,3.99-10.23,3.99-10.23l0.14-4.19c0,0-6-1.12-8.15-5.03
			c4.03-3.22,8.15-8.72,8.15-8.72s3.43-2.06,4.46-2.06c1.04,0,4.47,0.69,6.53-0.69s12.37,13.05,12.37,13.05l-4.81,7.56L43.46,111.2z
			"/>
		<polygon class="st36" points="33.63,104.06 37.75,112.31 30,112.31 		"/>
		<path class="st36" d="M33.63,96.51c0,0-1.37,9.62-10.99,8.93c0.69-2.06,1.37-4.12,1.37-4.12L33.63,96.51z"/>
		<g>
			<path class="st37" d="M32.94,99.25c-0.44,0.86-1,1.65-1.65,2.38c-0.65,0.73-1.39,1.39-2.23,1.93c-0.83,0.55-1.8,0.93-2.8,1.14
				c-1.01,0.25-2.06,0.18-3.09,0.06c-0.4-0.04-0.69-0.4-0.64-0.8s0.4-0.69,0.8-0.64c0.03,0,0.05,0.01,0.08,0.01l0.07,0.02
				c0.85,0.2,1.73,0.38,2.62,0.28c0.88-0.07,1.78-0.29,2.61-0.7C30.38,102.13,31.84,100.82,32.94,99.25z"/>
		</g>
		<path class="st36" d="M36.88,96.51c0,0,0.87,4.12,4.99,8.93c0-2.06-0.69-6.18-0.69-6.18L36.88,96.51z"/>
		<g>
			<path class="st37" d="M40.62,100.97c-0.41-0.21-0.7-0.43-1.01-0.68c-0.3-0.24-0.58-0.51-0.83-0.79
				c-0.51-0.56-0.91-1.21-1.18-1.88c0.48,0.54,1.03,0.99,1.63,1.31c0.3,0.17,0.61,0.31,0.92,0.42c0.3,0.11,0.66,0.21,0.92,0.24
				c0.41,0.05,0.69,0.42,0.65,0.82c-0.05,0.41-0.42,0.69-0.82,0.65c-0.09-0.01-0.18-0.04-0.25-0.08L40.62,100.97z"/>
		</g>
		<polygon class="st38" points="22.64,90.32 18.83,94.52 22.77,95.91 		"/>
		<path class="st39" d="M29.51,82.08c0,0,4.81,0,5.5-1.37c0.69-1.37-0.69-1.37-0.69-1.37s-4.81,1.37-7.22,0.69
			c-1.19-0.34-2.49,0.96-2.49,0.96S26.07,82.08,29.51,82.08z"/>
		<polyline class="st40" points="14.36,139.68 13.03,139.68 12.99,140.53 11.1,140.36 10.97,141.22 9.55,140.96 9.25,141.91 		"/>
		<polyline class="st40" points="17.02,141.82 15.05,141.78 15.09,142.6 13.67,142.47 13.72,143.16 11.83,143.11 11.83,143.8 		"/>
		<polyline class="st40" points="19.73,143.89 17.71,143.67 17.88,144.4 15.99,144.4 16.04,145.09 13.5,145 		"/>
		<polyline class="st40" points="21.71,145.73 20.07,145.73 20.03,146.46 18.44,146.38 18.48,146.94 15.82,146.94 		"/>
		<polyline class="st40" points="24.28,147.06 23.51,147.02 23.55,147.71 21.96,147.71 21.92,148.44 20.59,148.1 20.55,149.08 
			18.66,149 		"/>
		<path class="st41" d="M14.32,136.41l1.33,0.09l0.04,0.73l1.29-0.09l0.13,0.99l0.73-0.09l0.34,0.77l0.77-0.04
			c0,0,2.88,2.66,2.71,3.52"/>
		<path class="st42" d="M43.9,137.56c0,0,2.31,3.71,5.62,4.48c0.25,0.44-1.56,1.82-1.56,1.82s-3.65,0.87-5.99-4.29
			C41.69,138.19,43.9,137.56,43.9,137.56z"/>
		<g>
			<path class="st43" d="M55.69,134.11c0.39,0.42,0.53,0.96,0.43,1.48c-0.05,0.25-0.15,0.48-0.29,0.69
				c-0.13,0.19-0.27,0.36-0.41,0.53c-0.57,0.65-1.17,1.24-1.79,1.83c-1.21,1.19-2.59,2.19-3.88,3.26c1.22-1.17,2.51-2.25,3.63-3.51
				c0.57-0.62,1.13-1.25,1.62-1.91c0.25-0.34,0.47-0.65,0.49-0.98c0.04-0.32-0.11-0.66-0.31-0.85l-0.02-0.02
				c-0.15-0.14-0.16-0.36-0.02-0.51s0.36-0.16,0.51-0.02C55.68,134.1,55.68,134.11,55.69,134.11z"/>
		</g>
		<g>
			<path class="st44" d="M17.25,93.66c0.5,0.38,0.91,0.78,1.31,1.22c0.2,0.22,0.38,0.45,0.55,0.69l0.13,0.18
				c0.07,0.12,0.14,0.26,0.14,0.38c0.04,0.25-0.02,0.43-0.07,0.6c-0.23,0.64-0.58,1.09-0.92,1.55c-0.35,0.45-0.72,0.88-1.11,1.29
				c-0.76,0.83-1.57,1.62-2.38,2.38c-0.82,0.76-1.65,1.52-2.53,2.2c0.82-0.75,1.59-1.57,2.34-2.39c0.75-0.82,1.48-1.67,2.16-2.54
				c0.34-0.44,0.67-0.88,0.97-1.34c0.29-0.45,0.58-0.94,0.69-1.37c0.02-0.1,0.03-0.21,0.01-0.23c0-0.03-0.02,0,0-0.01l-0.13-0.15
				c-0.17-0.2-0.36-0.39-0.55-0.58c-0.38-0.36-0.81-0.71-1.22-0.97l-0.02-0.01c-0.25-0.16-0.33-0.5-0.17-0.75
				c0.16-0.25,0.5-0.33,0.75-0.17C17.23,93.65,17.24,93.65,17.25,93.66z"/>
		</g>
		<path class="st45" d="M8.73,104.71c-0.08,0-0.88,0-0.88,0v1.49l-0.05,0.56l-1.94,0.08l-0.03,0.72l4.02-0.16"/>
		<line class="st46" x1="5.48" y1="107.98" x2="3.22" y2="108.32"/>
		<line class="st46" x1="5.51" y1="106.42" x2="3.91" y2="106.09"/>
		<line class="st46" x1="8.01" y1="108.09" x2="4.76" y2="110.01"/>
		<line class="st46" x1="9.36" y1="108.57" x2="7.62" y2="110.34"/>
		<line class="st12" x1="44.08" y1="143.9" x2="43.17" y2="145.1"/>
		<line class="st12" x1="43" y1="144.02" x2="42.71" y2="144.31"/>
		<line class="st12" x1="42.73" y1="143.41" x2="42.42" y2="143.54"/>
		<line class="st12" x1="42.32" y1="142.69" x2="42.11" y2="142.92"/>
		<path class="st47" d="M89.97,52.53c0,0-3.78,4.47-13.4,1.72s-12.6-10.78-12.6-10.78l3.65-11.79c0,0,12.39-13.16,15.14-13.16
			c2.75,0,3.2,0,3.2,0S92.72,49.78,89.97,52.53z"/>
		<path class="st48" d="M82.76,21.27c0,0-3.44,7.56-10.31,10.99c-1.37,1.37-4.27,6.47-4.27,6.47s-6.03,4.53-1.23-3.03
			C69.93,31.03,77.95,20.58,82.76,21.27z"/>
		<path class="st48" d="M88.94,52.19c0,0,2.06,3.44-10.99,2.75C73.83,53.56,88.94,52.19,88.94,52.19z"/>
		<path class="st49" d="M87.22,50.47C83.1,49.1,75.8,41.88,75.8,41.88"/>
		<path class="st49" d="M72.79,43.6c0,0,6.87,7.56,10.99,8.24"/>
		<path class="st49" d="M68.28,44.97c0,0,6.87,7.65,11.19,8.63"/>
		<path class="st49" d="M74.37,52.82c0,0,11.48-1.66,12.85-3.72"/>
		<path class="st49" d="M70.85,50.13c0,0,7.44,0.34,12.25-2.4"/>
		<path class="st49" d="M68.28,47.34c0,0,9.92,0.24,12.72-2.78"/>
		<path class="st50" d="M86.19,17.83c1.72,1.03-6.53,23.02-22.94,25.77c-6.26,9.62-46.11,70.08-46.11,70.08s-3.33,1.46-2.69-1.33
			c0.63-1.78,42-62.44,47.17-70.25C61.65,35.33,74.46,14.77,86.19,17.83z M64.96,40.16c14.71-5.5,18.83-20.61,18.83-20.61
			C76.57,20.58,66.61,33.29,64.96,40.16z"/>
		<radialGradient id="SVGID_4_" cx="73.2041" cy="29.324" r="11.3543" gradientUnits="userSpaceOnUse">
			<stop  offset="0" style="stop-color:#A85025"/>
			<stop  offset="1" style="stop-color:#2C1A19"/>
		</radialGradient>
		<path class="st51" d="M84.13,17.83c0,0,0,1.37-1.37,2.06c-7.9,3.78-17.18,14.43-17.86,20.61c-2.4,1.03-2.75,0-2.75,0
			s4.47-16.83,19.3-22.67C85.16,17.49,84.13,17.83,84.13,17.83z"/>
		<path class="st52" d="M44.67,99.25c0,0,1.33-3.44-2.1-5.5s-4.12-4.12-4.12-4.12s1.37-6.18,0-7.56c-0.82-0.82-6.03-1.19-4.76,1.78
			c-0.19,0.15-0.8-0.43-1-0.25c-0.07,0.49-0.48,1.41-0.33,1.68c-0.2,0.19-0.69-0.51-0.9-0.3c-0.22,0.22-0.15,1.06-0.6,1.65
			c-0.22,0.35-0.91,0.77-1.04,1.19c-0.59,1.94,0.05,3.88,4.5,3.88c2.06,2.06,4.12,8.93,7.56,8.93
			C43.25,100.63,44.67,99.25,44.67,99.25z"/>
		<line class="st53" x1="31.08" y1="86.78" x2="32.68" y2="87.52"/>
		<line class="st53" x1="32.3" y1="85.34" x2="33.73" y2="85.96"/>
		<line class="st54" x1="33.8" y1="83.8" x2="35.13" y2="84.26"/>
		<g>
			<path class="st55" d="M34.66,81.73c-0.67,0.01-1.17,0.7-1.08,1.33c0.01,0.16,0.06,0.31,0.11,0.46c0.02,0.08,0.05,0.16,0.04,0.26
				c-0.02,0.14-0.2,0.14-0.26,0.11c-0.17-0.05-0.31-0.12-0.46-0.18c-0.14-0.06-0.33-0.1-0.33,0c0.01,0.29-0.09,0.67-0.2,0.95
				c-0.05,0.15-0.09,0.3-0.07,0.44c0.01,0.07,0.03,0.13,0.06,0.2l0.03,0.07c0,0,0.01,0.02,0.01,0.04l0,0.03
				c0,0.03-0.05,0.09-0.09,0.09c-0.08,0-0.09-0.03-0.1-0.03c-0.05-0.03-0.07-0.06-0.1-0.09c-0.21-0.2-0.56-0.46-0.66-0.32
				c-0.14,0.18-0.09,0.54-0.16,0.88c-0.15,0.72-0.77,1.16-1.14,1.62c-0.4,0.47-0.4,1.08-0.17,1.65c0.21,0.57,0.59,1.06,1.11,1.34
				c0.52,0.29,1.13,0.4,1.75,0.43c0.31,0.02,0.63,0.01,0.95,0.01c0.04-0.01,0.27,0,0.38,0.07c0.12,0.06,0.2,0.13,0.27,0.2
				c0.14,0.14,0.25,0.28,0.35,0.42c0.39,0.56,0.7,1.13,1.02,1.7c0.63,1.14,1.24,2.27,1.94,3.34c0.7,1.05,1.48,2.09,2.46,2.73
				c0.49,0.31,1.01,0.47,1.52,0.41c0.51-0.06,0.99-0.35,1.43-0.73c0.22-0.2,0.57-0.18,0.77,0.05c0.2,0.22,0.18,0.57-0.05,0.77
				c0,0-0.01,0.01-0.01,0.01c-0.55,0.45-1.23,0.85-2.03,0.92c-0.8,0.08-1.57-0.22-2.15-0.62c-1.18-0.84-1.94-1.97-2.64-3.08
				c-0.69-1.13-1.27-2.3-1.86-3.45c-0.3-0.57-0.59-1.15-0.92-1.67c-0.17-0.25-0.37-0.5-0.46-0.45c-0.33-0.01-0.66-0.02-0.99-0.05
				c-0.67-0.06-1.36-0.21-1.97-0.58c-0.61-0.37-1.05-0.99-1.26-1.64c-0.09-0.33-0.19-0.67-0.14-1.04c0.04-0.37,0.21-0.71,0.44-0.97
				c0.45-0.52,1-0.87,1.14-1.47c0.09-0.27-0.01-0.63,0.26-0.99c0.2-0.2,0.47-0.08,0.59,0.01c0.15,0.1,0.27,0.21,0.39,0.33l0.08,0.07
				c0.01,0.01,0.01-0.01-0.05,0c-0.04,0-0.08,0.06-0.08,0.08l0,0.01c0,0.01,0,0.02,0,0.01l-0.02-0.04
				c-0.03-0.08-0.06-0.17-0.07-0.27c-0.02-0.19,0.04-0.36,0.1-0.51c0.13-0.31,0.21-0.57,0.23-0.93c0.02-0.12,0.18-0.18,0.26-0.16
				c0.09,0.01,0.17,0.05,0.25,0.08c0.15,0.06,0.3,0.14,0.44,0.19c0.17,0.08,0.15-0.09,0.11-0.25c-0.05-0.15-0.09-0.32-0.1-0.48
				C33.45,82.4,33.99,81.72,34.66,81.73z"/>
		</g>
	</g>
</g>
</svg>
